@startuml

title __TESTARE's Class Diagram__\n

  namespace  {
    namespace estare {
      class testare.test {
      }
    }
  }
  



right footer


PlantUML diagram generated by SketchIt! (https://bitbucket.org/pmesmeur/sketch.it)
For more information about this tool, please contact philippe.mesmeur@gmail.com
endfooter

@enduml
